<svg xmlns="http://www.w3.org/2000/svg" width="135.998" height="136" viewBox="0 0 135.998 136">
  <g id="icon-004-angti-aging" transform="translate(0)">
    <g id="Group_93" data-name="Group 93">
      <g id="anti-aging">
        <path id="Path_258" data-name="Path 258" d="M87.13,180.225A66.069,66.069,0,1,0,153.2,246.3,66.144,66.144,0,0,0,87.13,180.225m0,134.071a68,68,0,1,1,48.083-19.916A67.556,67.556,0,0,1,87.13,314.3" transform="translate(-19.13 -178.296)" fill="#fff"/>
        <g id="Group_90" data-name="Group 90" transform="translate(10.646 9.679)">
          <path id="Path_259" data-name="Path 259" d="M36.524,221.9l-.66,3.206,1.966,1.054-.544,2.637L27.23,223.054l.277-1.341h.008l-.008-.009.277-1.339,11.51-1.3L38.75,221.7Zm-2.467,2.232.423-2.053-3.554.318-.011.045Z" transform="translate(-27.23 -175.159)" fill="#fff"/>
          <path id="Path_260" data-name="Path 260" d="M42.261,214.093l-.98,2.351L33.338,217.5l0,.049,6.381,2.656-.984,2.359L28.57,218.333l.983-2.359,7.936-1.061,0-.047-6.371-2.655.979-2.351Z" transform="translate(-26.809 -178.053)" fill="#fff"/>
          <path id="Path_261" data-name="Path 261" d="M37.91,204.633l-1.563,2.455,7.628,4.856L42.6,214.1l-7.628-4.857-1.536,2.41L31.781,210.6l4.471-7.021Z" transform="translate(-25.799 -180.028)" fill="#fff"/>
          <path id="Path_262" data-name="Path 262" d="M45.989,208.319l-1.6,1.979-8.55-6.934,1.6-1.979Z" transform="translate(-24.525 -180.717)" fill="#fff"/>
          <path id="Path_263" data-name="Path 263" d="M45.379,202.06l-3.118,3.179-1.409-1.38,3.118-3.179Z" transform="translate(-22.948 -180.938)" fill="#fff"/>
          <path id="Path_264" data-name="Path 264" d="M51.056,201l-2.612,1.973.782,2.091-2.148,1.621-3.77-10.948,1.092-.824,0,.007V194.9l1.092-.824,9.508,6.615-2.149,1.623Zm-3.328.049,1.671-1.262-2.877-2.108-.037.028Z" transform="translate(-22.176 -183.014)" fill="#fff"/>
          <path id="Path_265" data-name="Path 265" d="M59.787,197.178a4.608,4.608,0,0,1-.913,1.786,6.335,6.335,0,0,1-2.18,1.642,4.539,4.539,0,0,1-3.536.369,4.373,4.373,0,0,1-2.6-2.341l-1.029-2.053a4.44,4.44,0,0,1-.347-3.465,4.292,4.292,0,0,1,2.3-2.563,4.722,4.722,0,0,1,3.27-.589,3.144,3.144,0,0,1,2.083,1.836l.008.047-2.142,1.074a1.55,1.55,0,0,0-.925-.881,1.873,1.873,0,0,0-1.338.231,1.728,1.728,0,0,0-.97,1.272,2.91,2.91,0,0,0,.334,1.881l1.037,2.067a2.952,2.952,0,0,0,1.312,1.41,1.81,1.81,0,0,0,1.671-.055,4.345,4.345,0,0,0,.938-.6,1.76,1.76,0,0,0,.435-.557l-.882-1.757-1.743.875L53.8,195.3l4.031-2.02Z" transform="translate(-20.396 -184.338)" fill="#fff"/>
          <path id="Path_266" data-name="Path 266" d="M61.341,198.334l-2.408.836-3.62-10.394,2.407-.839Z" transform="translate(-18.402 -184.944)" fill="#fff"/>
          <path id="Path_267" data-name="Path 267" d="M69.827,196.757l-2.5.5-5.318-5.993-.042.025,1.364,6.773-2.5.507L58.655,187.78l2.505-.506,5.318,5.987.041-.025-1.363-6.766,2.5-.5Z" transform="translate(-17.352 -185.564)" fill="#fff"/>
          <path id="Path_268" data-name="Path 268" d="M76.173,195.282a4.6,4.6,0,0,1-1.611,1.2,6.315,6.315,0,0,1-2.681.506,4.544,4.544,0,0,1-3.334-1.235,4.375,4.375,0,0,1-1.3-3.253l-.013-2.3a4.437,4.437,0,0,1,1.226-3.257,4.3,4.3,0,0,1,3.2-1.281,4.723,4.723,0,0,1,3.19.923,3.144,3.144,0,0,1,1.055,2.57l-.016.046-2.4.012a1.544,1.544,0,0,0-.436-1.2,1.873,1.873,0,0,0-1.3-.386,1.732,1.732,0,0,0-1.434.711,2.912,2.912,0,0,0-.532,1.834l.013,2.315a2.929,2.929,0,0,0,.548,1.844,1.815,1.815,0,0,0,1.522.691,4.194,4.194,0,0,0,1.107-.121,1.736,1.736,0,0,0,.637-.3l-.012-1.966-1.949.012-.011-1.693,4.507-.026Z" transform="translate(-14.654 -185.66)" fill="#fff"/>
          <path id="Path_269" data-name="Path 269" d="M85.184,195.211l0,.047a3.533,3.533,0,0,1-1.706,2.524,4.5,4.5,0,0,1-3.237.217,4.265,4.265,0,0,1-3.324-5.449l.542-2.233a4.524,4.524,0,0,1,1.926-2.892,4.148,4.148,0,0,1,3.355-.476,4.85,4.85,0,0,1,2.918,1.711,3.44,3.44,0,0,1,.417,3.019l-.034.038-2.417-.586a2.021,2.021,0,0,0-.076-1.513,1.926,1.926,0,0,0-1.271-.758,1.492,1.492,0,0,0-1.448.361,3.258,3.258,0,0,0-.882,1.68L79.4,193.15a3.1,3.1,0,0,0,.057,1.92,1.689,1.689,0,0,0,1.249,1.017,1.62,1.62,0,0,0,1.334-.127,2.21,2.21,0,0,0,.723-1.334Z" transform="translate(-11.661 -185.302)" fill="#fff"/>
          <path id="Path_270" data-name="Path 270" d="M92.433,197.724a4.6,4.6,0,0,1-2.56,2.52,4.506,4.506,0,0,1-3.613-.191,4.491,4.491,0,0,1-2.343-6.2l.82-1.8A4.582,4.582,0,0,1,87.3,189.54a4.973,4.973,0,0,1,6.151,2.793,4.58,4.58,0,0,1-.2,3.587Zm-1.494-2.872a3.175,3.175,0,0,0,.294-1.991,2.024,2.024,0,0,0-2.869-1.308,3.2,3.2,0,0,0-1.3,1.539l-.827,1.818a3.206,3.206,0,0,0-.3,2.006,1.852,1.852,0,0,0,1.134,1.346,1.809,1.809,0,0,0,1.732-.045,3.209,3.209,0,0,0,1.309-1.546Z" transform="translate(-9.561 -184.532)" fill="#fff"/>
          <path id="Path_271" data-name="Path 271" d="M95.615,201.755l.037.028,6.633-4.64,2.694,2.041-6.647,8.775L96.3,206.417l4.283-5.654-.032-.033-6.222,4.193-1.368-1.037,2.324-7.012-.041-.021-4.218,5.569-2.037-1.544,6.648-8.773,2.669,2.023Z" transform="translate(-7.818 -183.634)" fill="#fff"/>
          <path id="Path_272" data-name="Path 272" d="M100.693,205.64l-2.872,2.446-1.657-1.945,8.38-7.138,2.727,3.2a4.57,4.57,0,0,1,1.253,3.012,3.564,3.564,0,0,1-3.99,3.4,4.581,4.581,0,0,1-2.772-1.722Zm1.5-1.275,1.067,1.254a1.683,1.683,0,0,0,1.171.672,1.637,1.637,0,0,0,1.18-.428,1.691,1.691,0,0,0,.634-1.111,1.657,1.657,0,0,0-.468-1.275l-1.07-1.254Z" transform="translate(-5.561 -181.466)" fill="#fff"/>
          <path id="Path_273" data-name="Path 273" d="M103.3,211.924l2.422,4.057-1.688,1.008-3.733-6.254,9.455-5.64,1.309,2.195Z" transform="translate(-4.261 -179.55)" fill="#fff"/>
          <path id="Path_274" data-name="Path 274" d="M109.911,219.386l-1.45-3.6-2.546,1.025,1.739,4.314-1.823.733-2.693-6.682,10.21-4.115,2.7,6.69-1.824.735-1.74-4.319-2.195.886,1.45,3.6Z" transform="translate(-3.369 -177.674)" fill="#fff"/>
          <path id="Path_275" data-name="Path 275" d="M113.257,222.425l4.014.974.636,2.878-6.01-1.9-4.69,4.509-.668-3.028,3.3-2.646-4.1-1.016-.634-2.88,6.114,1.966,4.655-4.252.627,2.856Z" transform="translate(-2.752 -175.8)" fill="#fff"/>
        </g>
        <path id="Path_276" data-name="Path 276" d="M111.964,227.06a2.2,2.2,0,0,1,1.656.6,2.366,2.366,0,0,1,.689,1.706,2.4,2.4,0,0,1-.578,1.776,2.177,2.177,0,0,1-1.621.7l-1.009.03a2.136,2.136,0,0,1-1.646-.6,2.753,2.753,0,0,1-.1-3.483,2.139,2.139,0,0,1,1.6-.7Z" transform="translate(9.051 -162.968)" fill="#fff"/>
        <path id="Path_277" data-name="Path 277" d="M31.258,233.681a2.188,2.188,0,0,1-1.63-.662,2.356,2.356,0,0,1-.626-1.73,2.414,2.414,0,0,1,.643-1.753,2.19,2.19,0,0,1,1.646-.636l1.011.008a2.151,2.151,0,0,1,1.622.656,2.756,2.756,0,0,1-.029,3.484,2.137,2.137,0,0,1-1.626.641Z" transform="translate(-16.027 -162.389)" fill="#fff"/>
        <g id="Group_91" data-name="Group 91" transform="translate(10.265 72.35)">
          <path id="Path_278" data-name="Path 278" d="M108.16,240.233l.632-3.212-1.977-1.036.522-2.642,10.1,5.652-.264,1.342h-.008l.008.009-.265,1.342-11.5,1.4.52-2.641Zm2.447-2.254-.4,2.056,3.551-.35.008-.043Z" transform="translate(-2.272 -233.343)" fill="#fff"/>
          <path id="Path_279" data-name="Path 279" d="M102.891,248.8l.959-2.362,7.933-1.128,0-.049-6.4-2.6.962-2.368,10.2,4.142-.961,2.368-7.925,1.13,0,.047,6.394,2.6-.959,2.359Z" transform="translate(-3.066 -231.157)" fill="#fff"/>
          <path id="Path_280" data-name="Path 280" d="M106.979,257.7l1.54-2.47-7.67-4.788,1.354-2.169,7.67,4.789,1.513-2.425,1.668,1.04-4.408,7.062Z" transform="translate(-3.707 -228.651)" fill="#fff"/>
          <path id="Path_281" data-name="Path 281" d="M98.378,253.7l1.585-1.994,8.614,6.858-1.589,1.993Z" transform="translate(-4.484 -227.57)" fill="#fff"/>
          <path id="Path_282" data-name="Path 282" d="M97.686,258.931l3.089-3.208,1.421,1.37L99.107,260.3Z" transform="translate(-4.702 -226.308)" fill="#fff"/>
          <path id="Path_283" data-name="Path 283" d="M93.744,261.965l2.594-2-.8-2.083,2.133-1.642,3.867,10.916-1.084.835-.005-.005V268l-1.086.833L89.8,262.3l2.133-1.642Zm3.325-.079-1.66,1.278,2.9,2.081.038-.028Z" transform="translate(-7.182 -226.144)" fill="#fff"/>
          <path id="Path_284" data-name="Path 284" d="M84.838,265.55a4.629,4.629,0,0,1,.9-1.794,6.358,6.358,0,0,1,2.166-1.663,4.547,4.547,0,0,1,3.532-.4,4.369,4.369,0,0,1,2.625,2.317l1.048,2.045a4.446,4.446,0,0,1,.379,3.461A4.3,4.3,0,0,1,93.21,272.1a4.717,4.717,0,0,1-3.265.618,3.143,3.143,0,0,1-2.1-1.818l-.009-.047,2.133-1.094a1.552,1.552,0,0,0,.933.873,1.88,1.88,0,0,0,1.337-.242,1.73,1.73,0,0,0,.957-1.281,2.914,2.914,0,0,0-.35-1.878l-1.055-2.058a2.942,2.942,0,0,0-1.325-1.4,1.811,1.811,0,0,0-1.668.07,4.271,4.271,0,0,0-.933.607,1.759,1.759,0,0,0-.431.56l.9,1.749,1.736-.89.773,1.508-4.01,2.056Z" transform="translate(-8.74 -224.493)" fill="#fff"/>
          <path id="Path_285" data-name="Path 285" d="M82.135,264.394l2.4-.861L88.249,273.9l-2.4.86Z" transform="translate(-9.59 -223.853)" fill="#fff"/>
          <path id="Path_286" data-name="Path 286" d="M74.9,266.376l2.492-.527L82.76,271.8l.041-.025-1.426-6.761,2.5-.528,2.271,10.772-2.5.528-5.372-5.938-.041.024,1.425,6.754-2.493.526Z" transform="translate(-11.866 -223.555)" fill="#fff"/>
          <path id="Path_287" data-name="Path 287" d="M68.024,267.6a4.626,4.626,0,0,1,1.6-1.21,6.322,6.322,0,0,1,2.676-.531,4.546,4.546,0,0,1,3.345,1.207,4.369,4.369,0,0,1,1.325,3.24L77,272.6a4.435,4.435,0,0,1-1.2,3.27,4.3,4.3,0,0,1-3.185,1.309,4.724,4.724,0,0,1-3.2-.9,3.141,3.141,0,0,1-1.078-2.559l.016-.046,2.395-.034a1.551,1.551,0,0,0,.448,1.193,1.871,1.871,0,0,0,1.306.376,1.721,1.721,0,0,0,1.426-.724,2.9,2.9,0,0,0,.519-1.837l-.034-2.312a2.943,2.943,0,0,0-.568-1.841,1.805,1.805,0,0,0-1.525-.677,4.215,4.215,0,0,0-1.105.129,1.767,1.767,0,0,0-.635.313l.028,1.965,1.949-.029.026,1.694-4.507.064Z" transform="translate(-14.026 -223.123)" fill="#fff"/>
          <path id="Path_288" data-name="Path 288" d="M59.133,267.764l0-.047a3.53,3.53,0,0,1,1.681-2.539,4.507,4.507,0,0,1,3.235-.246,4.265,4.265,0,0,1,3.374,5.42l-.52,2.238A4.537,4.537,0,0,1,65,275.5a4.148,4.148,0,0,1-3.35.506,4.849,4.849,0,0,1-2.935-1.685,3.446,3.446,0,0,1-.444-3.015l.034-.038,2.422.564a2.023,2.023,0,0,0,.089,1.512,1.921,1.921,0,0,0,1.279.747,1.49,1.49,0,0,0,1.443-.373,3.233,3.233,0,0,0,.867-1.688l.526-2.254a3.086,3.086,0,0,0-.074-1.92,1.691,1.691,0,0,0-1.257-1.005,1.618,1.618,0,0,0-1.334.141,2.211,2.211,0,0,0-.711,1.341Z" transform="translate(-17.139 -223.469)" fill="#fff"/>
          <path id="Path_289" data-name="Path 289" d="M52.056,265.291a4.592,4.592,0,0,1,2.539-2.543,4.5,4.5,0,0,1,3.613.159,4.488,4.488,0,0,1,2.4,6.175l-.8,1.81a4.591,4.591,0,0,1-2.542,2.538,4.972,4.972,0,0,1-6.175-2.738,4.583,4.583,0,0,1,.167-3.591Zm1.521,2.857a3.192,3.192,0,0,0-.276,2,2.024,2.024,0,0,0,2.882,1.28,3.22,3.22,0,0,0,1.285-1.55l.81-1.824a3.2,3.2,0,0,0,.281-2.01,1.845,1.845,0,0,0-1.147-1.335,1.813,1.813,0,0,0-1.73.059,3.236,3.236,0,0,0-1.3,1.56Z" transform="translate(-19.441 -224.196)" fill="#fff"/>
          <path id="Path_290" data-name="Path 290" d="M50.209,262.371l-.037-.026-6.593,4.7-2.711-2.016,6.568-8.835,2.05,1.526-4.232,5.691.032.033,6.185-4.248,1.376,1.024-2.261,7.032.041.022,4.169-5.607,2.049,1.526-6.569,8.832-2.687-2Z" transform="translate(-22.562 -226.161)" fill="#fff"/>
          <path id="Path_291" data-name="Path 291" d="M44.227,257.05l2.848-2.472,1.674,1.931-8.316,7.213-2.756-3.177a4.59,4.59,0,0,1-1.281-3,3.566,3.566,0,0,1,3.963-3.434,4.593,4.593,0,0,1,2.788,1.7Zm-1.485,1.288-1.08-1.245a1.687,1.687,0,0,0-1.178-.661,1.638,1.638,0,0,0-1.176.44,1.692,1.692,0,0,0-.623,1.116,1.66,1.66,0,0,0,.48,1.27l1.079,1.245Z" transform="translate(-23.968 -226.827)" fill="#fff"/>
          <path id="Path_292" data-name="Path 292" d="M41.173,251.337,38.715,247.3l1.68-1.024,3.787,6.219-9.4,5.724L33.45,256.04Z" transform="translate(-24.894 -229.277)" fill="#fff"/>
          <path id="Path_293" data-name="Path 293" d="M35.017,243.674,36.5,247.26l2.535-1.05-1.776-4.3,1.815-.752,2.754,6.66-10.173,4.206L28.9,245.36l1.818-.75,1.78,4.3,2.187-.906L33.2,244.426Z" transform="translate(-26.325 -230.885)" fill="#fff"/>
          <path id="Path_294" data-name="Path 294" d="M31.626,240.921l-4.026-.938-.66-2.873,6.026,1.851,4.65-4.552.694,3.022L35.038,240.1l4.111.981.66,2.874-6.133-1.911-4.615,4.293-.653-2.851Z" transform="translate(-26.94 -233.008)" fill="#fff"/>
        </g>
        <path id="Path_295" data-name="Path 295" d="M79.952,203.063a36.054,36.054,0,1,0,36.054,36.054,36.1,36.1,0,0,0-36.054-36.054m0,74.039a37.986,37.986,0,1,1,37.986-37.986A38.028,38.028,0,0,1,79.952,277.1" transform="translate(-11.952 -171.118)" fill="#fff"/>
      </g>
      <g id="Group_92" data-name="Group 92" transform="translate(31.049 31.226)">
        <path id="Path_296" data-name="Path 296" d="M69.8,230.15a.654.654,0,0,0-.357-.36.642.642,0,0,0-.507,0,7.423,7.423,0,0,1-7.1-.658.657.657,0,0,0-.793,1.048,8.728,8.728,0,0,0,7.777,1.059l.39.965a.655.655,0,0,0,.609.41.681.681,0,0,0,.247-.047.658.658,0,0,0,.363-.856Z" transform="translate(-37.086 -193.584)" fill="#fff"/>
        <path id="Path_297" data-name="Path 297" d="M42.753,238.666c4.139-5.762,10.866-6.885,14.019-7.076.095.959.2,1.876.313,2.755-3.211.832-9.99,3.294-13.961,9.712a36.772,36.772,0,0,0,1.487,6.352c2.194-8.266,9.647-11.239,13.078-12.185q.258,1.4.553,2.655c-2.817,1.556-9.705,6.155-11.566,14.521A36.8,36.8,0,0,0,50,260.806a1.965,1.965,0,0,0,.1-.643c-.219-8.593,6.1-13.5,9.231-15.4.352,1.057.726,2.028,1.116,2.928-2.075,2.382-7.288,9.4-5.816,18.276a37.185,37.185,0,0,0,4.908,3.822,1.927,1.927,0,0,0-.105-1.062c-3.055-7.615.649-14.166,2.966-17.243.5.827,1.009,1.6,1.533,2.351-.7,1.832-3.641,10.58.7,18.732A36.668,36.668,0,0,0,71,274.742a1.86,1.86,0,0,0-.213-.327c-5.531-5.641-4.893-12.774-3.984-16.629.15.206.3.4.448.612.168.237.335.48.506.729,1.79,2.617,4.243,6.2,11.351,6.2a1.433,1.433,0,0,1,.56,0c7.109,0,9.561-3.583,11.351-6.2.17-.25.336-.494.506-.731.281-.4.561-.773.841-1.155.948,3.7,1.918,11.3-3.835,17.172a1.9,1.9,0,0,0-.226.348,36.609,36.609,0,0,0,6.36-2.149c4.8-8.949.8-18.643.6-19.118-.025-.058-.06-.108-.089-.163.485-.722.961-1.472,1.422-2.27,2.249,2.882,6.473,9.754,3.3,17.662a1.947,1.947,0,0,0-.1,1.109,37.044,37.044,0,0,0,4.9-3.791c1.63-9.562-4.524-16.977-6.208-18.8.359-.858.7-1.789,1.021-2.781,2.9,1.66,9.955,6.64,9.723,15.7a1.938,1.938,0,0,0,.122.722,37.073,37.073,0,0,0,3.327-5.385c-1.95-9-9.733-13.67-12.109-14.9.185-.8.363-1.635.527-2.524,3.126.773,11.387,3.622,13.656,12.453a36.61,36.61,0,0,0,1.518-6.392c-4.2-6.886-11.649-9.248-14.58-9.934q.128-.984.242-2.021a33.449,33.449,0,0,1,5.816,1.589c5.775,2.213,8.7,4.223,8.7,5.975a1.948,1.948,0,0,0,.162.774c.025-.563.042-1.126.042-1.7a37.128,37.128,0,0,0-.377-5.247,34.98,34.98,0,0,0-7.133-3.454,41,41,0,0,0-11.537-2.451c-13.8-1.04-24.767-10.09-27.512-12.548.443-3.5,1.989-10.517,5.455-12.618a1.929,1.929,0,0,0,.509-.456,36.662,36.662,0,0,0-6.325,1.191c-2.476,4.173-3.316,9.642-3.554,11.728a46.512,46.512,0,0,1-21.007,10.683,36.968,36.968,0,0,0-1.295,4.072,1.979,1.979,0,0,0,.727.02,46.217,46.217,0,0,0,11.757-3.695c.03.557.059,1.115.093,1.651a24.193,24.193,0,0,0-13.151,4.759A37.239,37.239,0,0,0,42.753,238.666Zm25.3-20.124c3.536,3.086,13.5,10.817,26.451,12.71a22.6,22.6,0,0,1-11.085,2.817.607.607,0,0,0-.685.627.655.655,0,0,0,.626.685c.273.013.547.02.816.02a23.561,23.561,0,0,0,11.564-3.344.655.655,0,0,0,.293-.627c.428.047.852.108,1.287.141.258.02.5.057.754.08-1.379,13.137-4.6,17.514-8.311,22.547-.468.632-.938,1.271-1.412,1.933-.181.258-.364.523-.549.793-1.582,2.316-3.077,4.5-8.127,4.5a1.434,1.434,0,0,1-.56,0c-5.048,0-6.544-2.187-8.129-4.5-.184-.271-.365-.535-.548-.793-.514-.722-1.026-1.412-1.534-2.1-3.8-5.119-7.146-9.633-8.372-24.142.008-.057.024-.112.028-.171a1.945,1.945,0,0,0-.1-.712c-.117-1.529-.206-3.19-.277-4.942A50.449,50.449,0,0,0,68.05,218.542Z" transform="translate(-42.753 -202.054)" fill="#fff"/>
        <path id="Path_298" data-name="Path 298" d="M73.987,232.567a.674.674,0,0,0,.246.047.66.66,0,0,0,.61-.41l.389-.965a8.728,8.728,0,0,0,7.777-1.059.657.657,0,1,0-.794-1.046,7.51,7.51,0,0,1-7.1.657.657.657,0,0,0-.865.359l-.631,1.561A.659.659,0,0,0,73.987,232.567Z" transform="translate(-33.064 -193.584)" fill="#fff"/>
        <path id="Path_299" data-name="Path 299" d="M58.738,225.171A23.564,23.564,0,0,0,70.3,228.514q.4,0,.815-.02a.656.656,0,0,0,.627-.685.64.64,0,0,0-.686-.627,22.64,22.64,0,0,1-11.612-3.119.657.657,0,1,0-.71,1.107Z" transform="translate(-37.823 -195.168)" fill="#fff"/>
        <path id="Path_300" data-name="Path 300" d="M68.741,238.028a5.2,5.2,0,0,0,2.773.952.644.644,0,0,0,.1-.021.711.711,0,0,0,.1.021,5.207,5.207,0,0,0,2.775-.952.657.657,0,0,0-.781-1.057,3.918,3.918,0,0,1-1.994.694.706.706,0,0,0-.1.02.643.643,0,0,0-.1-.02,3.9,3.9,0,0,1-1.993-.694.657.657,0,0,0-.781,1.057Z" transform="translate(-34.667 -191.118)" fill="#fff"/>
      </g>
    </g>
  </g>
</svg>
