<svg id="icon-006-no-perservatives" xmlns="http://www.w3.org/2000/svg" width="136" height="136" viewBox="0 0 136 136">
  <g id="no-perservatives">
    <path id="Path_94" data-name="Path 94" d="M564.131,21.058A66.069,66.069,0,1,0,630.2,87.129a66.144,66.144,0,0,0-66.067-66.071m0,134.071A68,68,0,0,1,516.046,39.045a68,68,0,0,1,96.167,96.168,67.556,67.556,0,0,1-48.083,19.916" transform="translate(-496.13 -19.129)" fill="#fff"/>
    <path id="Path_95" data-name="Path 95" d="M531.466,54.464a36.089,36.089,0,1,0,51.037,0,36.128,36.128,0,0,0-51.037,0m52.406,52.4a38.024,38.024,0,1,1,0-53.773,38.067,38.067,0,0,1,0,53.773" transform="translate(-488.984 -11.983)" fill="#fff"/>
    <g id="Group_73" data-name="Group 73" transform="translate(10.214 9.758)">
      <path id="Path_96" data-name="Path 96" d="M517.62,60.062l-.609,2.666L508.8,65.29l.007.051,7.228,1.65-.609,2.674-11.517-2.628.61-2.674,8.2-2.565,0-.05L505.493,60.1l.609-2.665Z" transform="translate(-503.911 -16.907)" fill="#fff"/>
      <path id="Path_97" data-name="Path 97" d="M516.626,51a4.949,4.949,0,0,1,2.645,2.805,4.826,4.826,0,0,1-.291,3.871,4.814,4.814,0,0,1-6.7,2.368l-1.917-.922a4.919,4.919,0,0,1-2.636-2.811,5.333,5.333,0,0,1,3.141-6.533,4.919,4.919,0,0,1,3.844.3Zm-3.115,1.535a3.414,3.414,0,0,0-2.131-.361,2.173,2.173,0,0,0-1.469,3.047,3.433,3.433,0,0,0,1.621,1.432l1.93.928a3.442,3.442,0,0,0,2.145.369,1.984,1.984,0,0,0,1.472-1.187,1.949,1.949,0,0,0-.007-1.858,3.466,3.466,0,0,0-1.63-1.441Z" transform="translate(-502.805 -19.384)" fill="#fff"/>
      <path id="Path_98" data-name="Path 98" d="M520.29,48.289l3.022,2.694-1.821,2.048-8.824-7.857,3-3.367a4.9,4.9,0,0,1,3.017-1.779,3.821,3.821,0,0,1,4.2,3.74,4.91,4.91,0,0,1-1.42,3.2Zm-1.575-1.4,1.176-1.321a1.8,1.8,0,0,0,.54-1.344,1.748,1.748,0,0,0-.629-1.191,1.82,1.82,0,0,0-1.273-.509,1.789,1.789,0,0,0-1.286.685l-1.175,1.322Z" transform="translate(-501.173 -22.361)" fill="#fff"/>
      <path id="Path_99" data-name="Path 99" d="M528.323,39.8l-3.3,2.534,1.792,2.338,3.961-3.035,1.283,1.672-6.136,4.7-7.187-9.374,6.144-4.71,1.284,1.674-3.968,3.042,1.546,2.015,3.3-2.532Z" transform="translate(-499.244 -24.258)" fill="#fff"/>
      <path id="Path_100" data-name="Path 100" d="M530.806,38.74l2.027,4.05-2.451,1.226-5.289-10.562,3.678-1.842A5.1,5.1,0,0,1,532.106,31a3.136,3.136,0,0,1,2.236,1.784,2.6,2.6,0,0,1,.274,1.624,3.446,3.446,0,0,1-.8,1.594,2.644,2.644,0,0,1,1.856.219,3.173,3.173,0,0,1,1.226,1.388l.336.667a4.521,4.521,0,0,0,.595.881,1.379,1.379,0,0,0,.8.54l.073.147-2.532,1.268a1.341,1.341,0,0,1-.773-.6,8.243,8.243,0,0,1-.621-1.024l-.32-.638a1.739,1.739,0,0,0-.975-.954,1.769,1.769,0,0,0-1.368.186Zm-.943-1.886,1.239-.62a1.884,1.884,0,0,0,.962-.906,1.346,1.346,0,0,0-.093-1.163,1.554,1.554,0,0,0-.924-.84,1.727,1.727,0,0,0-1.332.173l-1.226.614Z" transform="translate(-497.24 -25.198)" fill="#fff"/>
      <path id="Path_101" data-name="Path 101" d="M541.189,36.212a1.18,1.18,0,0,0-.655-.827,5.4,5.4,0,0,0-1.636-.3,11.389,11.389,0,0,1-3.551-.609,2.741,2.741,0,0,1-1.641-1.961,2.856,2.856,0,0,1,.564-2.645,5.99,5.99,0,0,1,6.193-1.657,3.056,3.056,0,0,1,1.85,2.257v.051l-2.568.7a1.484,1.484,0,0,0-.757-1.051,2.118,2.118,0,0,0-1.423,0,1.759,1.759,0,0,0-1.038.662,1.139,1.139,0,0,0-.177.982.968.968,0,0,0,.646.687,8.521,8.521,0,0,0,1.8.32,8.821,8.821,0,0,1,3.389.616,2.956,2.956,0,0,1,1.647,2.04,2.838,2.838,0,0,1-.534,2.673,5.39,5.39,0,0,1-2.883,1.7,5.885,5.885,0,0,1-3.523-.02,3.253,3.253,0,0,1-2.086-2.514l0-.051,2.574-.7a1.838,1.838,0,0,0,.874,1.28,2.354,2.354,0,0,0,1.613.009,2.025,2.025,0,0,0,1.147-.666A1.1,1.1,0,0,0,541.189,36.212Z" transform="translate(-494.566 -26.141)" fill="#fff"/>
      <path id="Path_102" data-name="Path 102" d="M548.952,33.365l-4.148.34.239,2.935,4.974-.407.173,2.1-7.707.63-.964-11.774,7.715-.63.171,2.1-4.981.41.208,2.53,4.148-.339Z" transform="translate(-492.072 -26.562)" fill="#fff"/>
      <path id="Path_103" data-name="Path 103" d="M551.618,34.1l-.487,4.5-2.725-.294,1.265-11.745,4.091.441a5.1,5.1,0,0,1,3.132,1.293,3.128,3.128,0,0,1,.916,2.709,2.6,2.6,0,0,1-.647,1.514,3.428,3.428,0,0,1-1.532.912,2.652,2.652,0,0,1,1.444,1.188,3.184,3.184,0,0,1,.28,1.83l-.08.742a4.69,4.69,0,0,0,.024,1.065,1.391,1.391,0,0,0,.386.887l-.018.163-2.815-.3a1.326,1.326,0,0,1-.326-.924,8.27,8.27,0,0,1,.031-1.2l.078-.709a1.757,1.757,0,0,0-.306-1.331,1.781,1.781,0,0,0-1.251-.584Zm.224-2.1,1.381.15a1.892,1.892,0,0,0,1.3-.239,1.349,1.349,0,0,0,.551-1.03,1.56,1.56,0,0,0-.323-1.205,1.74,1.74,0,0,0-1.216-.578l-1.363-.146Z" transform="translate(-489.903 -26.562)" fill="#fff"/>
      <path id="Path_104" data-name="Path 104" d="M559.75,37.278l-.054.435.046.016.2-.356,4.851-7.525,2.737.868-7.225,10.1-2.822-.9-.059-12.413,2.729.866Z" transform="translate(-487.063 -26.266)" fill="#fff"/>
      <path id="Path_105" data-name="Path 105" d="M568.5,41.412l-3.088-1.676-1.695,1.692-2.537-1.376,9.021-8.546,1.29.7,0,.007.012,0,1.29.7-2.241,12.225-2.539-1.377Zm-1.524-3.228,1.974,1.071.779-3.748-.042-.025Z" transform="translate(-485.879 -25.016)" fill="#fff"/>
      <path id="Path_106" data-name="Path 106" d="M579.625,41.348l-2.451-1.94-6.02,7.61-2.15-1.7,6.02-7.61-2.4-1.9,1.309-1.655,7,5.544Z" transform="translate(-483.387 -24.189)" fill="#fff"/>
      <path id="Path_107" data-name="Path 107" d="M574.457,49.607l-1.9-1.965,8.493-8.21,1.9,1.966Z" transform="translate(-482.275 -22.537)" fill="#fff"/>
      <path id="Path_108" data-name="Path 108" d="M579.282,51.043l-.3.316.03.039.369-.165,8.39-3.133,1.672,2.333-11.83,3.778L575.883,51.8l7.372-9.986,1.67,2.326Z" transform="translate(-481.235 -21.791)" fill="#fff"/>
      <path id="Path_109" data-name="Path 109" d="M586.186,58.833l-1.75-3.775L581.765,56.3l2.1,4.528-1.913.886L578.7,54.7l10.717-4.97,3.258,7.022-1.915.887-2.1-4.533-2.3,1.067,1.751,3.777Z" transform="translate(-480.355 -19.318)" fill="#fff"/>
      <path id="Path_110" data-name="Path 110" d="M585.658,64.826a1.176,1.176,0,0,0,.838-.638,5.4,5.4,0,0,0,.326-1.633,11.38,11.38,0,0,1,.671-3.54,2.736,2.736,0,0,1,1.989-1.605,2.852,2.852,0,0,1,2.635.61,5.981,5.981,0,0,1,1.55,6.22,3.067,3.067,0,0,1-2.288,1.813l-.051,0-.655-2.58a1.486,1.486,0,0,0,1.062-.739,2.113,2.113,0,0,0,.03-1.422,1.756,1.756,0,0,0-.647-1.05,1.137,1.137,0,0,0-.977-.2.969.969,0,0,0-.7.634,8.719,8.719,0,0,0-.353,1.792,8.823,8.823,0,0,1-.672,3.379,2.959,2.959,0,0,1-2.068,1.613,2.847,2.847,0,0,1-2.665-.58,5.4,5.4,0,0,1-1.647-2.912,5.9,5.9,0,0,1,.08-3.523,3.247,3.247,0,0,1,2.549-2.041l.05,0,.658,2.587a1.839,1.839,0,0,0-1.293.852,2.342,2.342,0,0,0-.038,1.613,2.011,2.011,0,0,0,.646,1.159A1.092,1.092,0,0,0,585.658,64.826Z" transform="translate(-479.382 -16.946)" fill="#fff"/>
    </g>
    <path id="Path_111" data-name="Path 111" d="M588.96,67.893a2.2,2.2,0,0,1,1.654.6,2.363,2.363,0,0,1,.688,1.7,2.406,2.406,0,0,1-.578,1.775,2.179,2.179,0,0,1-1.619.694l-1.008.03a2.133,2.133,0,0,1-1.644-.595,2.748,2.748,0,0,1-.1-3.477,2.137,2.137,0,0,1,1.6-.7Z" transform="translate(-467.925 -3.798)" fill="#fff"/>
    <path id="Path_112" data-name="Path 112" d="M508.256,74.509a2.186,2.186,0,0,1-1.628-.663A2.351,2.351,0,0,1,506,72.12a2.414,2.414,0,0,1,.642-1.752,2.187,2.187,0,0,1,1.644-.634l1.009.008a2.148,2.148,0,0,1,1.62.654,2.755,2.755,0,0,1-.029,3.481,2.134,2.134,0,0,1-1.624.639Z" transform="translate(-493.042 -3.219)" fill="#fff"/>
    <g id="Group_74" data-name="Group 74" transform="translate(11.067 73.853)">
      <path id="Path_113" data-name="Path 113" d="M581.3,84.851l.624-2.661,8.22-2.517,0-.051-7.221-1.691.626-2.67,11.5,2.694-.627,2.67L586.2,83.143l.007.051,7.211,1.689-.622,2.662Z" transform="translate(-480.395 -75.261)" fill="#fff"/>
      <path id="Path_114" data-name="Path 114" d="M581.849,93.644a4.932,4.932,0,0,1-2.628-2.821,4.816,4.816,0,0,1,.314-3.869,4.814,4.814,0,0,1,6.715-2.331l1.911.933a4.919,4.919,0,0,1,2.619,2.826A5.333,5.333,0,0,1,587.6,94.9a4.91,4.91,0,0,1-3.842-.322Zm3.123-1.519a3.419,3.419,0,0,0,2.128.375,2.173,2.173,0,0,0,1.487-3.039,3.437,3.437,0,0,0-1.612-1.441l-1.924-.94a3.46,3.46,0,0,0-2.142-.381,1.987,1.987,0,0,0-1.479,1.179,1.953,1.953,0,0,0,0,1.859,3.463,3.463,0,0,0,1.62,1.448Z" transform="translate(-481.128 -72.513)" fill="#fff"/>
      <path id="Path_115" data-name="Path 115" d="M577.815,96.795l-3.007-2.708,1.835-2.039,8.776,7.908-3.021,3.351a4.91,4.91,0,0,1-3.029,1.76,3.824,3.824,0,0,1-4.178-3.766,4.922,4.922,0,0,1,1.439-3.193Zm1.566,1.412L578.2,99.521a1.8,1.8,0,0,0-.549,1.342,1.75,1.75,0,0,0,.622,1.195,1.823,1.823,0,0,0,1.271.516,1.762,1.762,0,0,0,1.288-.679l1.184-1.314Z" transform="translate(-482.424 -70.011)" fill="#fff"/>
      <path id="Path_116" data-name="Path 116" d="M570.371,105.485l3.32-2.513-1.78-2.348-3.976,3.014-1.275-1.683,6.163-4.668,7.133,9.418-6.17,4.673-1.276-1.683,3.985-3.017-1.533-2.024-3.317,2.513Z" transform="translate(-485.005 -68.373)" fill="#fff"/>
      <path id="Path_117" data-name="Path 117" d="M567.952,106.291l-2-4.06,2.46-1.212,5.226,10.594-3.687,1.819a5.107,5.107,0,0,1-3.338.588,3.126,3.126,0,0,1-2.225-1.8,2.578,2.578,0,0,1-.264-1.625,3.443,3.443,0,0,1,.8-1.591,2.633,2.633,0,0,1-1.854-.228,3.186,3.186,0,0,1-1.219-1.4l-.329-.669a4.7,4.7,0,0,0-.591-.883,1.385,1.385,0,0,0-.8-.545l-.071-.146,2.537-1.254a1.319,1.319,0,0,1,.769.608,7.522,7.522,0,0,1,.616,1.025l.316.641a1.75,1.75,0,0,0,.97.96,1.769,1.769,0,0,0,1.37-.179Zm.935,1.893-1.245.613a1.883,1.883,0,0,0-.967.9,1.349,1.349,0,0,0,.085,1.166,1.565,1.565,0,0,0,.917.844,1.731,1.731,0,0,0,1.336-.167l1.229-.605Z" transform="translate(-487.084 -67.206)" fill="#fff"/>
      <path id="Path_118" data-name="Path 118" d="M556.782,108.546a1.175,1.175,0,0,0,.648.83,5.371,5.371,0,0,0,1.636.307,11.414,11.414,0,0,1,3.547.631,2.74,2.74,0,0,1,1.63,1.97,2.844,2.844,0,0,1-.583,2.64,5.978,5.978,0,0,1-6.2,1.623,3.063,3.063,0,0,1-1.839-2.27l0-.05,2.573-.684a1.49,1.49,0,0,0,.75,1.054,2.122,2.122,0,0,0,1.422.012,1.753,1.753,0,0,0,1.044-.656,1.137,1.137,0,0,0,.184-.981.962.962,0,0,0-.641-.689,8.589,8.589,0,0,0-1.8-.332,8.791,8.791,0,0,1-3.386-.635,2.958,2.958,0,0,1-1.638-2.048,2.843,2.843,0,0,1,.549-2.67,5.4,5.4,0,0,1,2.893-1.682,5.91,5.91,0,0,1,3.525.039,3.251,3.251,0,0,1,2.07,2.527l0,.051-2.58.685a1.828,1.828,0,0,0-.866-1.284,2.348,2.348,0,0,0-1.612-.02,2.005,2.005,0,0,0-1.153.66A1.1,1.1,0,0,0,556.782,108.546Z" transform="translate(-488.989 -66.064)" fill="#fff"/>
      <path id="Path_119" data-name="Path 119" d="M548.594,111.391l4.151-.315-.223-2.937-4.975.378-.16-2.1,7.71-.587.894,11.779-7.716.587-.161-2.1,4.983-.379-.192-2.532-4.15.316Z" transform="translate(-491.078 -65.702)" fill="#fff"/>
      <path id="Path_120" data-name="Path 120" d="M546.125,110.732l.511-4.5,2.725.31-1.334,11.737-4.087-.465a5.1,5.1,0,0,1-3.126-1.31,3.128,3.128,0,0,1-.9-2.716,2.6,2.6,0,0,1,.659-1.51,3.411,3.411,0,0,1,1.536-.9,2.657,2.657,0,0,1-1.436-1.2,3.173,3.173,0,0,1-.27-1.831l.085-.742a4.731,4.731,0,0,0-.02-1.063,1.4,1.4,0,0,0-.379-.893l.02-.161,2.812.319a1.323,1.323,0,0,1,.319.927,8.038,8.038,0,0,1-.037,1.2l-.081.709a1.747,1.747,0,0,0,.3,1.332,1.766,1.766,0,0,0,1.247.589Zm-.239,2.1-1.377-.156a1.885,1.885,0,0,0-1.3.232,1.355,1.355,0,0,0-.559,1.027,1.561,1.561,0,0,0,.316,1.206,1.744,1.744,0,0,0,1.213.584l1.36.154Z" transform="translate(-493.439 -65.807)" fill="#fff"/>
      <path id="Path_121" data-name="Path 121" d="M538.172,107.635l.057-.435-.049-.014-.2.353-4.893,7.5-2.733-.886,7.284-10.058,2.817.914-.012,12.412-2.725-.882Z" transform="translate(-496.439 -66.244)" fill="#fff"/>
      <path id="Path_122" data-name="Path 122" d="M529.807,103.536l3.078,1.695,1.7-1.684,2.531,1.391-9.071,8.493-1.287-.708,0-.008-.01,0-1.288-.708L527.78,99.8l2.53,1.391Zm1.507,3.237-1.969-1.083-.8,3.745.042.022Z" transform="translate(-497.977 -67.587)" fill="#fff"/>
      <path id="Path_123" data-name="Path 123" d="M518.729,103.319l2.438,1.956,6.07-7.569,2.138,1.716-6.07,7.569,2.392,1.918-1.321,1.646-6.968-5.59Z" transform="translate(-500.543 -68.242)" fill="#fff"/>
      <path id="Path_124" data-name="Path 124" d="M523.608,94.473,525.5,96.45l-8.541,8.159-1.889-1.977Z" transform="translate(-501.275 -69.253)" fill="#fff"/>
      <path id="Path_125" data-name="Path 125" d="M519.537,93.537l.3-.315-.03-.039-.37.164-8.4,3.085-1.662-2.343,11.851-3.708,1.713,2.415-7.433,9.943-1.655-2.335Z" transform="translate(-503.055 -70.533)" fill="#fff"/>
      <path id="Path_126" data-name="Path 126" d="M512.776,85.611l1.73,3.786,2.678-1.223-2.073-4.538,1.919-.877,3.212,7.034L509.5,94.7l-3.215-7.041,1.919-.877,2.077,4.546,2.309-1.054-1.728-3.786Z" transform="translate(-504.022 -72.916)" fill="#fff"/>
      <path id="Path_127" data-name="Path 127" d="M512.919,79.216a1.183,1.183,0,0,0-.842.634,5.438,5.438,0,0,0-.335,1.63,11.447,11.447,0,0,1-.69,3.536,2.738,2.738,0,0,1-2,1.594,2.851,2.851,0,0,1-2.629-.625,5.989,5.989,0,0,1-1.516-6.228,3.064,3.064,0,0,1,2.3-1.8l.051,0,.641,2.582a1.479,1.479,0,0,0-1.067.734A2.106,2.106,0,0,0,506.8,82.7a1.759,1.759,0,0,0,.638,1.054,1.139,1.139,0,0,0,.978.2.968.968,0,0,0,.7-.629,8.566,8.566,0,0,0,.364-1.792,8.8,8.8,0,0,1,.692-3.372,2.96,2.96,0,0,1,2.077-1.6,2.844,2.844,0,0,1,2.66.595,5.406,5.406,0,0,1,1.633,2.922,5.888,5.888,0,0,1-.1,3.523,3.243,3.243,0,0,1-2.561,2.026h-.05l-.642-2.591a1.847,1.847,0,0,0,1.3-.845,2.344,2.344,0,0,0,.047-1.612,2.024,2.024,0,0,0-.639-1.163A1.093,1.093,0,0,0,512.919,79.216Z" transform="translate(-504.56 -74.888)" fill="#fff"/>
    </g>
    <path id="Path_128" data-name="Path 128" d="M569.739,91.127c-.026-.056-.055-.113-.085-.167l-10.5-18.531a6.631,6.631,0,0,1-.859-3.261v-7.48A4.879,4.879,0,0,0,560.62,53.7a4.926,4.926,0,0,0-3.644-1.617h-9.39a5.047,5.047,0,0,0-5.055,4.412,4.907,4.907,0,0,0,3.567,5.231v7.451a6.592,6.592,0,0,1-.856,3.244l-10.5,18.538c-.03.054-.059.11-.084.167a7.295,7.295,0,0,0,6.661,10.268h21.76a7.3,7.3,0,0,0,6.662-10.268Zm-21.1-16.782A10.5,10.5,0,0,0,550,69.178V59.959a1.95,1.95,0,0,0-1.949-1.949h-.629a1.013,1.013,0,0,1-1.008-1.125,1.137,1.137,0,0,1,1.176-.9h9.39a1.011,1.011,0,0,1,1.007,1.124,1.153,1.153,0,0,1-1.175.9h-.462a1.95,1.95,0,0,0-1.949,1.949v9.21a10.516,10.516,0,0,0,1.367,5.183l7.442,13.138H541.188Zm17.29,21.6a3.337,3.337,0,0,1-2.847,1.548h-21.76a3.4,3.4,0,0,1-3.134-4.7l.8-1.406h26.435l.8,1.406A3.334,3.334,0,0,1,565.924,95.949Z" transform="translate(-484.197 -8.74)" fill="#fff"/>
  </g>
</svg>
